Introduction to scPloidy
…
Infer ploidy

Instead of the small dataset computed above, we here use a complete
dataset for single-nucleus ATAC-seq of a rat liver.

data(SHR_m154211)
?SHR_m154211
fragmentoverlap = SHR_m154211$fragmentoverlap
fragmentoverlap
#> # A tibble: 3,572 × 8
#>    barcode     nfrags depth1 depth2 depth3 depth4 depth5 depth6
#>    <chr>        <int>  <int>  <int>  <int>  <int>  <int>  <int>
#>  1 BC00025_N01 129201 126908   2237     53      3      0      0
#>  2 BC00026_N01 130564 127401   3065     91      6      1      0
#>  3 BC00035_N01 123100 120093   2940     66      1      0      0
#>  4 BC00057_N01 110602 108061   2472     67      2      0      0
#>  5 BC00086_N01 110108 107374   2667     66      1      0      0
#>  6 BC00087_N01 108661 106717   1908     33      2      1      0
#>  7 BC00099_N01 107028 104685   2264     76      3      0      0
#>  8 BC00106_N01 100659  97576   2985     92      6      0      0
#>  9 BC00115_N01 105057 102889   2104     64      0      0      0
#> 10 BC00116_N01 105085 103519   1535     31      0      0      0
#> # … with 3,562 more rows
…
